Rによる社会調査データ分析の手引き - 10 ロジスティック回帰分析（作成中）
…
Number of Fisher Scoring iterations: 4

このときの年齢の係数は年齢が1高いとOJTを受ける対数オッズが-0.016だけ高いということを意味している。

10.3 平均限界効果

ロジスティック回帰分析では係数は対数オッズを表す。しかし、対数オッズ比は線形確率モデルと比べると直感的に解釈しにくい。そこで、ロジスティック回帰分析を使う場合には、平均限界効果 Average marginal effect, AMEと合わせて結果を解釈することが強く推奨される。

平均限界効果とはなんだろうか。これを理解するため、先ほどのロジスティック回帰分析を次のように変形する（式変形については対数の知識が必要）：

piaac %>% 
  select(id, gender, age)

# A tibble: 2,728 × 3
      id gender   age
   <int> <fct>  <dbl>
 1     1 女性      45
 2     2 男性      48
 3     3 男性      47
 4     4 男性      58
 5     6 女性      35
 6     9 男性      56
 7    12 女性      32
 8    15 男性      45
 9    18 男性      30
10    19 男性      46
# ℹ 2,718 more rows
…
