Chapter 4 データの加工 | 社会調査データ分析のためのRの手引き
…
piaac_sample <- piaac_sample %>% 
  mutate(wage_tile = ntile(wage, 100))

piaac_sample %>% 
  group_by(wage_tile) %>% 
  summarize(min = min(wage), 
            max = max(wage))

## # A tibble: 100 × 3
##    wage_tile      min   max
##        <int>    <dbl> <dbl>
##  1         1   0.0578  462.
##  2         2 462.      600 
##  3         3 600       650 
##  4         4 650       694.
##  5         5 694.      700 
##  6         6 700.      723.
##  7         7 723.      750 
##  8         8 750       757.
##  9         9 758.      771.
## 10        10 771.      792.
## # … with 90 more rows
…
