Chapter 9 ロジスティック回帰分析（作成中） | Rによる社会調査データ分析の手引き
…
\[
\begin{align}
\log \frac{\Pr(y = 1)}{1 - \Pr(y = 1)} &= \beta_0 + \beta_1x_1 + \cdots + \beta_kx_k \\
\frac{\Pr(y = 1)}{1 - \Pr(y = 1)} &= \exp(\beta_0 + \beta_1x_1 + \cdots + \beta_kx_k) \\
\Pr(y = 1) &= (1 - \Pr(y = 1))\exp(\beta_0 + \beta_1x_1 + \cdots + \beta_kx_k) \\
(1 + \exp(\beta_0 + \beta_1x_1 + \cdots + \beta_kx_k))\Pr(y = 1) &= \exp(\beta_0 + \beta_1x_1 + \cdots + \beta_kx_k) \\
\Pr(y = 1) &= \frac{\exp(\beta_0 + \beta_1x_1 + \cdots + \beta_kx_k)}{1 + \exp(\beta_0 + \beta_1x_1 + \cdots + \beta_kx_k)}
\end{align}
\]

piaac %>% 
  select(id, gender, age)

## # A tibble: 2,728 × 3
##       id gender   age
##    <int> <fct>  <dbl>
##  1     1 女性      45
##  2     2 男性      48
##  3     3 男性      47
##  4     4 男性      58
##  5     6 女性      35
##  6     9 男性      56
##  7    12 女性      32
##  8    15 男性      45
##  9    18 男性      30
## 10    19 男性      46
## # … with 2,718 more rows
…
