Chapter 11 パネルデータ分析（作成中） | Rによる社会調査データ分析の手引き
…
nls_sample <- nls_sample %>% 
  arrange(id, year) %>% 
  group_by(id) %>% # idごとにデータをグループ化
  mutate(
    ln_wage_lag = lag(ln_wage, n = 1), # 1時点前のln_wageをコピー
    ln_wage_lead = lead(ln_wage, n = 1) # 1時点後のln_wageをコピー
  ) %>% 
  ungroup() # グループ化を解除

## 作成した変数を確認
nls_sample %>% 
  select(id, year, ln_wage, ln_wage_lag, ln_wage_lead) %>%
  head(n = 30)

## # A tibble: 30 × 5
##       id  year ln_wage ln_wage_lag ln_wage_lead
##    <dbl> <dbl>   <dbl>       <dbl>        <dbl>
##  1     1    72    1.59       NA            1.78
##  2     1    77    1.78        1.59         2.55
##  3     1    80    2.55        1.78         2.42
##  4     1    83    2.42        2.55         2.61
##  5     1    85    2.61        2.42         2.54
##  6     1    87    2.54        2.61         2.46
##  7     1    88    2.46        2.54        NA   
##  8     2    71    1.36       NA            1.73
##  9     2    77    1.73        1.36         1.69
## 10     2    78    1.69        1.73         1.73
## # ℹ 20 more rows
…
